\relax 
\bbl@cs{beforestart}
\babel@aux{croatian}{}
\citation{endsley95}
\citation{hasmpr91}
\citation{floc01}
\citation{blwo04}
\@writefile{toc}{\contentsline {chapter}{\numberline {1}Uvod}{1}\protected@file@percent }
\@writefile{lof}{\addvspace {10\p@ }}
\@writefile{lot}{\addvspace {10\p@ }}
\@writefile{toc}{\contentsline {chapter}{\numberline {2}Pojednostavljena simulacija zračnog prometa}{2}\protected@file@percent }
\@writefile{lof}{\addvspace {10\p@ }}
\@writefile{lot}{\addvspace {10\p@ }}
\@writefile{lot}{\contentsline {table}{\numberline {2.1}{\ignorespaces Boje točki\relax }}{2}\protected@file@percent }
\providecommand*\caption@xref[2]{\@setref\relax\@undefined{#1}}
\newlabel{tbl:boje_tocki}{{2.1}{2}}
\citation{rijcro1}
\@writefile{toc}{\contentsline {section}{\numberline {2.1}Ponovljivost}{3}\protected@file@percent }
\citation{asdjhb11}
\citation{wxyyly05}
\@writefile{loa}{\contentsline {algorithm}{\numberline {1}{\ignorespaces Pseudorandom generator\relax }}{4}\protected@file@percent }
\newlabel{alg:pseudorandom_alg}{{1}{4}}
\@writefile{toc}{\contentsline {section}{\numberline {2.2}Performantost}{6}\protected@file@percent }
\@writefile{toc}{\contentsline {subsection}{\numberline {2.2.1}Prostorna hash mapa}{6}\protected@file@percent }
\newlabel{subsec:spatial_hash_map}{{2.2.1}{6}}
\@writefile{toc}{\contentsline {subsection}{\numberline {2.2.2}Dvostruki spremnik}{7}\protected@file@percent }
\@writefile{toc}{\contentsline {subsection}{\numberline {2.2.3}Priručna spremišta}{9}\protected@file@percent }
\bibdata{literatura}
\bibstyle{fer}
\@writefile{toc}{\contentsline {chapter}{\numberline {3}Zaključak}{10}\protected@file@percent }
\@writefile{lof}{\addvspace {10\p@ }}
\@writefile{lot}{\addvspace {10\p@ }}
