\babel@toc {croatian}{}
\contentsline {chapter}{\numberline {1}Uvod}{1}%
\contentsline {chapter}{\numberline {2}Pojednostavljena simulacija zračnog prometa}{2}%
\contentsline {section}{\numberline {2.1}Ponovljivost}{3}%
\contentsline {section}{\numberline {2.2}Performantost}{6}%
\contentsline {subsection}{\numberline {2.2.1}Prostorna hash mapa}{6}%
\contentsline {subsection}{\numberline {2.2.2}Dvostruki spremnik}{7}%
\contentsline {subsection}{\numberline {2.2.3}Priručna spremišta}{9}%
\contentsline {chapter}{\numberline {3}Zaključak}{10}%
