\relax 
\bbl@cs{beforestart}
\babel@aux{croatian}{}
\citation{endsley95}
\citation{hasmpr91}
\citation{floc01}
\citation{blwo04}
\@writefile{toc}{\contentsline {chapter}{\numberline {1}Uvod}{1}\protected@file@percent }
\@writefile{lof}{\addvspace {10\p@ }}
\@writefile{lot}{\addvspace {10\p@ }}
\@writefile{toc}{\contentsline {chapter}{\numberline {2}Pojednostavljena simulacija zračnog prometa}{2}\protected@file@percent }
\@writefile{lof}{\addvspace {10\p@ }}
\@writefile{lot}{\addvspace {10\p@ }}
\@writefile{lot}{\contentsline {table}{\numberline {2.1}{\ignorespaces Boje točki\relax }}{2}\protected@file@percent }
\providecommand*\caption@xref[2]{\@setref\relax\@undefined{#1}}
\newlabel{tbl:boje_tocki}{{2.1}{2}}
\newlabel{enum:parametri}{{2}{2}}
\citation{rijcro1}
\@writefile{toc}{\contentsline {section}{\numberline {2.1}Ponovljivost}{3}\protected@file@percent }
\citation{asdjhb11}
\citation{wxyyly05}
\@writefile{loa}{\contentsline {algorithm}{\numberline {1}{\ignorespaces Pseudorandom generator\relax }}{4}\protected@file@percent }
\newlabel{alg:pseudorandom_alg}{{1}{4}}
\@writefile{toc}{\contentsline {section}{\numberline {2.2}Brzina izvođenja}{4}\protected@file@percent }
\@writefile{toc}{\contentsline {subsection}{\numberline {2.2.1}Prostorna hash mapa}{5}\protected@file@percent }
\newlabel{subsec:spatial_hash_map}{{2.2.1}{5}}
\@writefile{toc}{\contentsline {subsection}{\numberline {2.2.2}Dvostruki spremnik}{5}\protected@file@percent }
\@writefile{toc}{\contentsline {subsection}{\numberline {2.2.3}Priručna spremišta}{5}\protected@file@percent }
\@writefile{toc}{\contentsline {section}{\numberline {2.3}Konfigurabilnost}{5}\protected@file@percent }
\@writefile{toc}{\contentsline {section}{\numberline {2.4}Preciznost}{6}\protected@file@percent }
\citation{prnima99}
\@writefile{toc}{\contentsline {section}{\numberline {2.5}Višekorisnički rad}{7}\protected@file@percent }
\citation{firt00}
\@writefile{toc}{\contentsline {chapter}{\numberline {3}Arhitektura sustava}{9}\protected@file@percent }
\@writefile{lof}{\addvspace {10\p@ }}
\@writefile{lot}{\addvspace {10\p@ }}
\@writefile{lof}{\contentsline {figure}{\numberline {3.1}{\ignorespaces Arhitektura platforme\relax }}{9}\protected@file@percent }
\newlabel{fig:dijagram_arhitekture}{{3.1}{9}}
\@writefile{toc}{\contentsline {section}{\numberline {3.1}Baza podataka}{10}\protected@file@percent }
\@writefile{lof}{\contentsline {figure}{\numberline {3.2}{\ignorespaces Shema baze podataka\relax }}{10}\protected@file@percent }
\newlabel{fig:dijagram_baze}{{3.2}{10}}
\@writefile{toc}{\contentsline {section}{\numberline {3.2}Serverska aplikacija}{11}\protected@file@percent }
\@writefile{toc}{\contentsline {subsection}{\numberline {3.2.1}Model podataka}{11}\protected@file@percent }
\@writefile{lof}{\contentsline {figure}{\numberline {3.3}{\ignorespaces UML dijagram DTO objekata\relax }}{12}\protected@file@percent }
\newlabel{fig:dto_uml}{{3.3}{12}}
\@writefile{lof}{\contentsline {figure}{\numberline {3.4}{\ignorespaces UML dijagram entitetskih objekata\relax }}{13}\protected@file@percent }
\newlabel{fig:entity_uml}{{3.4}{13}}
\@writefile{toc}{\contentsline {subsection}{\numberline {3.2.2}Servisni sloj}{14}\protected@file@percent }
\@writefile{lof}{\contentsline {figure}{\numberline {3.5}{\ignorespaces UML dijagram servisnih objekata\relax }}{14}\protected@file@percent }
\newlabel{fig:service_uml}{{3.5}{14}}
\@writefile{toc}{\contentsline {subsection}{\numberline {3.2.3}Kontrolerski sloj}{14}\protected@file@percent }
\@writefile{lof}{\contentsline {figure}{\numberline {3.6}{\ignorespaces UML dijagram kontrolerskih objekata\relax }}{15}\protected@file@percent }
\newlabel{fig:controller_uml}{{3.6}{15}}
\@writefile{toc}{\contentsline {section}{\numberline {3.3}Test situacijske svjesnosti}{15}\protected@file@percent }
\@writefile{lof}{\contentsline {figure}{\numberline {3.7}{\ignorespaces Dijagram ovisnosti modula Testa situacijske svjesnosti\relax }}{16}\protected@file@percent }
\newlabel{fig:colliders_deps}{{3.7}{16}}
\@writefile{toc}{\contentsline {section}{\numberline {3.4}Upravljačko sučelje}{17}\protected@file@percent }
\@writefile{lof}{\contentsline {figure}{\numberline {3.8}{\ignorespaces Dijagram ovisnosti modula Upravljačkog sučelja\relax }}{18}\protected@file@percent }
\newlabel{fig:admin_deps}{{3.8}{18}}
\@writefile{toc}{\contentsline {chapter}{\numberline {4}Implementacija sustava}{19}\protected@file@percent }
\@writefile{lof}{\addvspace {10\p@ }}
\@writefile{lot}{\addvspace {10\p@ }}
\@writefile{toc}{\contentsline {section}{\numberline {4.1}Oblikovni obrasci}{19}\protected@file@percent }
\@writefile{toc}{\contentsline {subsection}{\numberline {4.1.1}Strategija}{19}\protected@file@percent }
\@writefile{toc}{\contentsline {subsection}{\numberline {4.1.2}Most}{20}\protected@file@percent }
\@writefile{lof}{\contentsline {figure}{\numberline {4.1}{\ignorespaces UML dijagram klase PointRenderer\relax }}{20}\protected@file@percent }
\newlabel{fig:point_renderer_uml}{{4.1}{20}}
\@writefile{toc}{\contentsline {subsection}{\numberline {4.1.3}Injekcija ovisnosti}{20}\protected@file@percent }
\@writefile{toc}{\contentsline {subsection}{\numberline {4.1.4}Promatrač}{21}\protected@file@percent }
\@writefile{toc}{\contentsline {section}{\numberline {4.2}Implementacija zahtjeva platforme}{22}\protected@file@percent }
\@writefile{toc}{\contentsline {subsection}{\numberline {4.2.1}Generator pseudoslučajnih brojeva}{22}\protected@file@percent }
\@writefile{toc}{\contentsline {subsection}{\numberline {4.2.2}Prostorna hash mapa}{23}\protected@file@percent }
\@writefile{toc}{\contentsline {subsection}{\numberline {4.2.3}Dvostruki spremnik}{24}\protected@file@percent }
\@writefile{toc}{\contentsline {subsection}{\numberline {4.2.4}Priručna spremišta}{25}\protected@file@percent }
\@writefile{toc}{\contentsline {section}{\numberline {4.3}Korištenje platforme}{26}\protected@file@percent }
\@writefile{toc}{\contentsline {subsection}{\numberline {4.3.1}Upravljačko sučelje}{26}\protected@file@percent }
\@writefile{lof}{\contentsline {figure}{\numberline {4.2}{\ignorespaces Sučelje za generiranje novog obrasca ili testa\relax }}{26}\protected@file@percent }
\newlabel{fig:admin_generate}{{4.2}{26}}
\@writefile{lof}{\contentsline {figure}{\numberline {4.3}{\ignorespaces Generiranje novog testnog obrasca\relax }}{26}\protected@file@percent }
\newlabel{fig:admin_template_generate}{{4.3}{26}}
\@writefile{lof}{\contentsline {figure}{\numberline {4.4}{\ignorespaces Rezultat generiranja novog testa, link se šalje ispitaniku\relax }}{27}\protected@file@percent }
\@writefile{toc}{\contentsline {subsection}{\numberline {4.3.2}Test situacijske svjesnosti}{27}\protected@file@percent }
\@writefile{lof}{\contentsline {figure}{\numberline {4.5}{\ignorespaces Početni ekran pri pokretanju testa\relax }}{27}\protected@file@percent }
\@writefile{lof}{\contentsline {figure}{\numberline {4.6}{\ignorespaces Sučelje testa\relax }}{28}\protected@file@percent }
\bibdata{literatura.bib}
\@writefile{toc}{\contentsline {chapter}{\numberline {5}Zaključak}{29}\protected@file@percent }
\@writefile{lof}{\addvspace {10\p@ }}
\@writefile{lot}{\addvspace {10\p@ }}
\bibcite{asdjhb11}{{1}{2011}{{Al-Kuwari et~al.}}{{Al-Kuwari, Davenport, i Bradford}}}
\bibcite{blwo04}{{2}{2004}{{Blandford i Wong}}{{}}}
\bibcite{endsley95}{{3}{1995}{{Endsley}}{{}}}
\bibcite{firt00}{{4}{2000}{{Fielding}}{{}}}
\bibcite{floc01}{{5}{2001}{{Flin i O'Connor}}{{}}}
\bibcite{hasmpr91}{{6}{1989}{{Hartel i Prince}}{{}}}
\bibcite{prnima99}{{7}{1999}{{Provos et~al.}}{{Provos, Mazières, i Sutton}}}
\bibcite{wxyyly05}{{8}{2005}{{Wang et~al.}}{{Wang, Yin, i Yu}}}
\bibcite{rijcro1}{{9}{2011}{{za~hrvatski jezik~i jezikoslovlje}}{{}}}
\bibstyle{fer}
\@writefile{toc}{\contentsline {chapter}{Literatura}{30}\protected@file@percent }
